{
  "type": "service_account",
  "project_id": "soul-way",
  "private_key_id": "cbcded68ddd6ab1bb8d5b959e8b7af8d43112c18",
  "private_key": "-----BEGIN PRIVATE KEY-----\nMIIEvQIBADANBgkqhkiG9w0BAQEFAASCBKcwggSjAgEAAoIBAQCKehh+mCq8Jl9x\nKMXhpaXxZHn1W9bQBUjGjxVhyi29OA2aYZuB6AmZAULgMfSojAjYLUfs/ILoP45+\nq/UgITfjOunFXkKCOkEp3BjJFTKSDxdcUjLynkOyObwVLMgOp1fSD7skQmbbuXae\nKNNoTUK3ScwREwFMerJtVyU2ugctdRFXN+kKlwRs0h2Bv7334LIB95/YkdLQL38I\ngZWDkWN/OGLKdm6S9HaD7I8HpxDa0NWJw2T9MPK5PjQAmpqcE9iBK473KU207Lb9\nNLCYXtQL+okSDIX/9zy94sr8UFjS8iOhMEc94WfptntS7i4/JsF0Zn24oETnmWX2\n5WhPI+5jAgMBAAECggEAdZerV02W9MHNSMXsDGtjmLLPUklUCMCEBYGaEbnjz4xb\nGN+Mc+t8wv6sMMCbV8na9OC29IuWCu117yHNfiRXVlJAFEewSPB5R7fNIG0szZWd\nK9vtwdQd/qpCiuTFWpRG4m5TaD4vJKXBEhvvMuJxJj632UP/VVfYTzuysV+WGsXD\n1N5sCJnMCgyMIPuNwiQTPUOZsVBPQZWe4HNOjeOybQTGpXQ139Wx7PpZ2aIvp7Jo\nHVE/FT/dwSxXD1tQRM1vUeHi57PsC8anQC6WxCIl66PZstm+fVIsAcKJLY7zoQ8E\nCqGbuPDmq7h3CZKCpmvfgtDK67iQc7fsyD/iqtC4QQKBgQD4z7/O6QhSKZbtdoV6\nEpZfdnMcyKzAXG19qpV0UX6+73zgsYmGILZGRIv9D9D7Qxyw9uUD4PgtzSio8Rht\nFU3EXr/aCXmR7WvS9+31DlSqqP0rDP6BhbyZH/D+YA1uYaMz1KfFnv/CUMSe3vJ2\nHlDa8RKJ+yyhnVkQr7c8CqN5gwKBgQCOeks1CmNpoo/lBDuJNqQQu3Hu23b74E6+\nI3hfU3Liv84vehhUcEtmi/JIc7sMmarl2tse6Qw5NVLmjyjUmsoW16Sut0GaZPcS\ncHSYGRfmwyJKE2i7Lo1zP76gE/lZJP9Cxi6tX2ZGHSHj4I67Z1rNTorVyZtq0epU\nmww/sckBoQKBgQCadfZAUCCPSSxeHJ7+Sn25o8IQk2/TN03tnrGLdXA2vlwK7YxP\njQ07ECDLqD73TRGJtqwzvTy0ylE8l/eu+HO/vYZiqFElS3wNi0bZQ91B2QjZ6gYx\niEGt2ct1T1HnPYvgiFri7zMdgaCedA+XTnipgtEcgaaSaik5l6wsBPq5WwKBgBfk\n/J3tmxSJNdazqgRuDH/d39KuLbs6OBp9Ol/KT/clMcAWmuP2XT7ac4yhFBqd3uJj\nnOIHNYyWm8uc8L0PJJtGGRFQHIl3K1SFVZh4hOCnkyWXMbZKrWBJrX+NOgEwSjr5\nn7RlznItypQ8AdP+FmVeKbyG7jCw+bqsshYwi8RhAoGAchTApk5uqrwoOeWJclS4\n8Ps+lYKx6iKsy5g7M3SbDW3P3OsXvexaqAvbZFSD3O8rTDo0WLZxcQiRbiZ4g3DX\nIEio59BumOtw1ZhRn1gfFYoA0H5lsBibG4npqLAqK1gHC2dhSZyZPXg8PuDzWNw9\njl2wTqDw/s6SfjoLDFN6On4=\n-----END PRIVATE KEY-----\n",
  "client_email": "service@soul-way.iam.gserviceaccount.com",
  "client_id": "116681221033307089123",
  "auth_uri": "https://accounts.google.com/o/oauth2/auth",
  "token_uri": "https://accounts.google.com/o/oauth2/token",
  "auth_provider_x509_cert_url": "https://www.googleapis.com/oauth2/v1/certs",
  "client_x509_cert_url": "https://www.googleapis.com/robot/v1/metadata/x509/service%40soul-way.iam.gserviceaccount.com"
}
